10d070059_Assignment1/10D070059/waveout.vcd
$date
  Sat Feb  1 23:33:25 2014
$end
$version
  GHDL v0
$end
$timescale
  1 fs
$end
$var reg 8 ! m_in[7:0] $end
$var reg 8 " r_in[7:0] $end
$var reg 1 # en $end
$var reg 1 $ clk $end
$var reg 16 % data_out[15:0] $end
$scope module booth_1 $end
$var reg 8 & m_in[7:0] $end
$var reg 8 ' r_in[7:0] $end
$var reg 1 ( en $end
$var reg 1 ) clk $end
$var reg 16 * data_out[15:0] $end
$var reg 17 + a[16:0] $end
$var reg 17 , p[16:0] $end
$var reg 17 - s[16:0] $end
$var reg 17 . temp_a[16:0] $end
$var reg 17 / temp_s[16:0] $end
$var reg 17 0 temp_p[16:0] $end
$var reg 17 1 soutput[16:0] $end
$var reg 17 2 pa[16:0] $end
$var reg 17 3 ps[16:0] $end
$var reg 17 4 output[16:0] $end
$var reg 17 5 drvr[16:0] $end
$var reg 17 6 ptemp[16:0] $end
$var reg 8 7 neg_m[7:0] $end
$var reg 2 8 temp[1:0] $end
$scope module comp $end
$var reg 8 9 d_in[7:0] $end
$var reg 8 : d_out[7:0] $end
$var reg 1 ; temp $end
$var reg 8 < p[7:0] $end
$scope module comp $end
$var reg 8 = a[7:0] $end
$var reg 8 > b[7:0] $end
$var reg 1 ? cin $end
$var reg 8 @ sum[7:0] $end
$var reg 1 A cout $end
$var reg 9 B temp[8:0] $end
$scope module ad8_0 $end
$var reg 1 C x $end
$var reg 1 D y $end
$var reg 1 E cin $end
$var reg 1 F sum $end
$var reg 1 G cout $end
$upscope $end
$scope module ad8_1 $end
$var reg 1 H x $end
$var reg 1 I y $end
$var reg 1 J cin $end
$var reg 1 K sum $end
$var reg 1 L cout $end
$upscope $end
$scope module ad8_2 $end
$var reg 1 M x $end
$var reg 1 N y $end
$var reg 1 O cin $end
$var reg 1 P sum $end
$var reg 1 Q cout $end
$upscope $end
$scope module ad8_3 $end
$var reg 1 R x $end
$var reg 1 S y $end
$var reg 1 T cin $end
$var reg 1 U sum $end
$var reg 1 V cout $end
$upscope $end
$scope module ad8_4 $end
$var reg 1 W x $end
$var reg 1 X y $end
$var reg 1 Y cin $end
$var reg 1 Z sum $end
$var reg 1 [ cout $end
$upscope $end
$scope module ad8_5 $end
$var reg 1 \ x $end
$var reg 1 ] y $end
$var reg 1 ^ cin $end
$var reg 1 _ sum $end
$var reg 1 ` cout $end
$upscope $end
$scope module ad8_6 $end
$var reg 1 a x $end
$var reg 1 b y $end
$var reg 1 c cin $end
$var reg 1 d sum $end
$var reg 1 e cout $end
$upscope $end
$scope module ad8_7 $end
$var reg 1 f x $end
$var reg 1 g y $end
$var reg 1 h cin $end
$var reg 1 i sum $end
$var reg 1 j cout $end
$upscope $end
$upscope $end
$upscope $end
$scope module arbit1 $end
$var reg 17 k d_in[16:0] $end
$var reg 1 l clock $end
$var reg 17 m q[16:0] $end
$upscope $end
$scope module arbit2 $end
$var reg 17 n d_in[16:0] $end
$var reg 1 o clock $end
$var reg 17 p q[16:0] $end
$upscope $end
$scope module arbit3 $end
$var reg 17 q d_in[16:0] $end
$var reg 1 r clock $end
$var reg 17 s q[16:0] $end
$upscope $end
$scope module arbit4 $end
$var reg 17 t a_in[16:0] $end
$var reg 17 u b_in[16:0] $end
$var reg 1 v c_in $end
$var reg 17 w output[16:0] $end
$var reg 1 x c_out $end
$var reg 3 y temp[2:0] $end
$scope module add_17_1 $end
$var reg 8 z a[7:0] $end
$var reg 8 { b[7:0] $end
$var reg 1 | cin $end
$var reg 8 } sum[7:0] $end
$var reg 1 !" cout $end
$var reg 9 "" temp[8:0] $end
$scope module ad8_0 $end
$var reg 1 #" x $end
$var reg 1 $" y $end
$var reg 1 %" cin $end
$var reg 1 &" sum $end
$var reg 1 '" cout $end
$upscope $end
$scope module ad8_1 $end
$var reg 1 (" x $end
$var reg 1 )" y $end
$var reg 1 *" cin $end
$var reg 1 +" sum $end
$var reg 1 ," cout $end
$upscope $end
$scope module ad8_2 $end
$var reg 1 -" x $end
$var reg 1 ." y $end
$var reg 1 /" cin $end
$var reg 1 0" sum $end
$var reg 1 1" cout $end
$upscope $end
$scope module ad8_3 $end
$var reg 1 2" x $end
$var reg 1 3" y $end
$var reg 1 4" cin $end
$var reg 1 5" sum $end
$var reg 1 6" cout $end
$upscope $end
$scope module ad8_4 $end
$var reg 1 7" x $end
$var reg 1 8" y $end
$var reg 1 9" cin $end
$var reg 1 :" sum $end
$var reg 1 ;" cout $end
$upscope $end
$scope module ad8_5 $end
$var reg 1 <" x $end
$var reg 1 =" y $end
$var reg 1 >" cin $end
$var reg 1 ?" sum $end
$var reg 1 @" cout $end
$upscope $end
$scope module ad8_6 $end
$var reg 1 A" x $end
$var reg 1 B" y $end
$var reg 1 C" cin $end
$var reg 1 D" sum $end
$var reg 1 E" cout $end
$upscope $end
$scope module ad8_7 $end
$var reg 1 F" x $end
$var reg 1 G" y $end
$var reg 1 H" cin $end
$var reg 1 I" sum $end
$var reg 1 J" cout $end
$upscope $end
$upscope $end
$scope module add_17_2 $end
$var reg 8 K" a[7:0] $end
$var reg 8 L" b[7:0] $end
$var reg 1 M" cin $end
$var reg 8 N" sum[7:0] $end
$var reg 1 O" cout $end
$var reg 9 P" temp[8:0] $end
$scope module ad8_0 $end
$var reg 1 Q" x $end
$var reg 1 R" y $end
$var reg 1 S" cin $end
$var reg 1 T" sum $end
$var reg 1 U" cout $end
$upscope $end
$scope module ad8_1 $end
$var reg 1 V" x $end
$var reg 1 W" y $end
$var reg 1 X" cin $end
$var reg 1 Y" sum $end
$var reg 1 Z" cout $end
$upscope $end
$scope module ad8_2 $end
$var reg 1 [" x $end
$var reg 1 \" y $end
$var reg 1 ]" cin $end
$var reg 1 ^" sum $end
$var reg 1 _" cout $end
$upscope $end
$scope module ad8_3 $end
$var reg 1 `" x $end
$var reg 1 a" y $end
$var reg 1 b" cin $end
$var reg 1 c" sum $end
$var reg 1 d" cout $end
$upscope $end
$scope module ad8_4 $end
$var reg 1 e" x $end
$var reg 1 f" y $end
$var reg 1 g" cin $end
$var reg 1 h" sum $end
$var reg 1 i" cout $end
$upscope $end
$scope module ad8_5 $end
$var reg 1 j" x $end
$var reg 1 k" y $end
$var reg 1 l" cin $end
$var reg 1 m" sum $end
$var reg 1 n" cout $end
$upscope $end
$scope module ad8_6 $end
$var reg 1 o" x $end
$var reg 1 p" y $end
$var reg 1 q" cin $end
$var reg 1 r" sum $end
$var reg 1 s" cout $end
$upscope $end
$scope module ad8_7 $end
$var reg 1 t" x $end
$var reg 1 u" y $end
$var reg 1 v" cin $end
$var reg 1 w" sum $end
$var reg 1 x" cout $end
$upscope $end
$upscope $end
$scope module add_17_3 $end
$var reg 1 y" x $end
$var reg 1 z" y $end
$var reg 1 {" cin $end
$var reg 1 |" sum $end
$var reg 1 }" cout $end
$upscope $end
$upscope $end
$scope module arbit5 $end
$var reg 17 !# a_in[16:0] $end
$var reg 17 "# b_in[16:0] $end
$var reg 1 ## c_in $end
$var reg 17 $# output[16:0] $end
$var reg 1 %# c_out $end
$var reg 3 &# temp[2:0] $end
$scope module add_17_1 $end
$var reg 8 '# a[7:0] $end
$var reg 8 (# b[7:0] $end
$var reg 1 )# cin $end
$var reg 8 *# sum[7:0] $end
$var reg 1 +# cout $end
$var reg 9 ,# temp[8:0] $end
$scope module ad8_0 $end
$var reg 1 -# x $end
$var reg 1 .# y $end
$var reg 1 /# cin $end
$var reg 1 0# sum $end
$var reg 1 1# cout $end
$upscope $end
$scope module ad8_1 $end
$var reg 1 2# x $end
$var reg 1 3# y $end
$var reg 1 4# cin $end
$var reg 1 5# sum $end
$var reg 1 6# cout $end
$upscope $end
$scope module ad8_2 $end
$var reg 1 7# x $end
$var reg 1 8# y $end
$var reg 1 9# cin $end
$var reg 1 :# sum $end
$var reg 1 ;# cout $end
$upscope $end
$scope module ad8_3 $end
$var reg 1 <# x $end
$var reg 1 =# y $end
$var reg 1 ># cin $end
$var reg 1 ?# sum $end
$var reg 1 @# cout $end
$upscope $end
$scope module ad8_4 $end
$var reg 1 A# x $end
$var reg 1 B# y $end
$var reg 1 C# cin $end
$var reg 1 D# sum $end
$var reg 1 E# cout $end
$upscope $end
$scope module ad8_5 $end
$var reg 1 F# x $end
$var reg 1 G# y $end
$var reg 1 H# cin $end
$var reg 1 I# sum $end
$var reg 1 J# cout $end
$upscope $end
$scope module ad8_6 $end
$var reg 1 K# x $end
$var reg 1 L# y $end
$var reg 1 M# cin $end
$var reg 1 N# sum $end
$var reg 1 O# cout $end
$upscope $end
$scope module ad8_7 $end
$var reg 1 P# x $end
$var reg 1 Q# y $end
$var reg 1 R# cin $end
$var reg 1 S# sum $end
$var reg 1 T# cout $end
$upscope $end
$upscope $end
$scope module add_17_2 $end
$var reg 8 U# a[7:0] $end
$var reg 8 V# b[7:0] $end
$var reg 1 W# cin $end
$var reg 8 X# sum[7:0] $end
$var reg 1 Y# cout $end
$var reg 9 Z# temp[8:0] $end
$scope module ad8_0 $end
$var reg 1 [# x $end
$var reg 1 \# y $end
$var reg 1 ]# cin $end
$var reg 1 ^# sum $end
$var reg 1 _# cout $end
$upscope $end
$scope module ad8_1 $end
$var reg 1 `# x $end
$var reg 1 a# y $end
$var reg 1 b# cin $end
$var reg 1 c# sum $end
$var reg 1 d# cout $end
$upscope $end
$scope module ad8_2 $end
$var reg 1 e# x $end
$var reg 1 f# y $end
$var reg 1 g# cin $end
$var reg 1 h# sum $end
$var reg 1 i# cout $end
$upscope $end
$scope module ad8_3 $end
$var reg 1 j# x $end
$var reg 1 k# y $end
$var reg 1 l# cin $end
$var reg 1 m# sum $end
$var reg 1 n# cout $end
$upscope $end
$scope module ad8_4 $end
$var reg 1 o# x $end
$var reg 1 p# y $end
$var reg 1 q# cin $end
$var reg 1 r# sum $end
$var reg 1 s# cout $end
$upscope $end
$scope module ad8_5 $end
$var reg 1 t# x $end
$var reg 1 u# y $end
$var reg 1 v# cin $end
$var reg 1 w# sum $end
$var reg 1 x# cout $end
$upscope $end
$scope module ad8_6 $end
$var reg 1 y# x $end
$var reg 1 z# y $end
$var reg 1 {# cin $end
$var reg 1 |# sum $end
$var reg 1 }# cout $end
$upscope $end
$scope module ad8_7 $end
$var reg 1 !$ x $end
$var reg 1 "$ y $end
$var reg 1 #$ cin $end
$var reg 1 $$ sum $end
$var reg 1 %$ cout $end
$upscope $end
$upscope $end
$scope module add_17_3 $end
$var reg 1 &$ x $end
$var reg 1 '$ y $end
$var reg 1 ($ cin $end
$var reg 1 )$ sum $end
$var reg 1 *$ cout $end
$upscope $end
$upscope $end
$scope module arbit7 $end
$var reg 17 +$ a[16:0] $end
$var reg 17 ,$ b[16:0] $end
$var reg 17 -$ c[16:0] $end
$var reg 2 .$ sel[1:0] $end
$var reg 17 /$ dout[16:0] $end
$upscope $end
$scope module arbit8 $end
$var reg 17 0$ a[16:0] $end
$var reg 17 1$ b[16:0] $end
$var reg 1 2$ sel $end
$var reg 17 3$ dout[16:0] $end
$upscope $end
$upscope $end
$enddefinitions $end
#0
b00001000 !
b00000100 "
0#
0$
b0000000000000000 %
b00001000 &
b00000100 '
0(
0)
b0000000000000000 *
b00000000000000000 +
b00000000000000000 ,
b00000000000000000 -
b00001000000000000 .
b11111000000000000 /
b00000000000001000 0
b00000000000000000 1
b00000000000000000 2
b00000000000000000 3
b00000000000000000 4
b00000000000000000 5
b00000000000001000 6
b11111000 7
b00 8
b00001000 9
b11111000 :
0;
b11110111 <
b11110111 =
b00000001 >
0?
b11111000 @
0A
b000001110 B
1C
1D
0E
0F
1G
1H
0I
1J
0K
1L
1M
0N
1O
0P
1Q
0R
0S
1T
1U
0V
1W
0X
0Y
1Z
0[
1\
0]
0^
1_
0`
1a
0b
0c
1d
0e
1f
0g
0h
1i
0j
b00001000000000000 k
0l
b00000000000000000 m
b11111000000000000 n
0o
b00000000000000000 p
b00000000000001000 q
0r
b00000000000000000 s
b00000000000000000 t
b00000000000000000 u
0v
b00000000000000000 w
0x
b000 y
b00000000 z
b00000000 {
0|
b00000000 }
0!"
b000000000 ""
0#"
0$"
0%"
0&"
0'"
0("
0)"
0*"
0+"
0,"
0-"
0."
0/"
00"
01"
02"
03"
04"
05"
06"
07"
08"
09"
0:"
0;"
0<"
0="
0>"
0?"
0@"
0A"
0B"
0C"
0D"
0E"
0F"
0G"
0H"
0I"
0J"
b00000000 K"
b00000000 L"
0M"
b00000000 N"
0O"
b000000000 P"
0Q"
0R"
0S"
0T"
0U"
0V"
0W"
0X"
0Y"
0Z"
0["
0\"
0]"
0^"
0_"
0`"
0a"
0b"
0c"
0d"
0e"
0f"
0g"
0h"
0i"
0j"
0k"
0l"
0m"
0n"
0o"
0p"
0q"
0r"
0s"
0t"
0u"
0v"
0w"
0x"
0y"
0z"
0{"
0|"
0}"
b00000000000000000 !#
b00000000000000000 "#
0##
b00000000000000000 $#
0%#
b000 &#
b00000000 '#
b00000000 (#
0)#
b00000000 *#
0+#
b000000000 ,#
0-#
0.#
0/#
00#
01#
02#
03#
04#
05#
06#
07#
08#
09#
0:#
0;#
0<#
0=#
0>#
0?#
0@#
0A#
0B#
0C#
0D#
0E#
0F#
0G#
0H#
0I#
0J#
0K#
0L#
0M#
0N#
0O#
0P#
0Q#
0R#
0S#
0T#
b00000000 U#
b00000000 V#
0W#
b00000000 X#
0Y#
b000000000 Z#
0[#
0\#
0]#
0^#
0_#
0`#
0a#
0b#
0c#
0d#
0e#
0f#
0g#
0h#
0i#
0j#
0k#
0l#
0m#
0n#
0o#
0p#
0q#
0r#
0s#
0t#
0u#
0v#
0w#
0x#
0y#
0z#
0{#
0|#
0}#
0!$
0"$
0#$
0$$
0%$
0&$
0'$
0($
0)$
0*$
b00000000000000000 +$
b00000000000000000 ,$
b00000000000000000 -$
b00 .$
b00000000000000000 /$
b00000000000001000 0$
b00000000000000000 1$
02$
b00000000000001000 3$
#20000000
1$
b0000000000000100 %
1)
b0000000000000100 *
b00001000000000000 +
b00000000000001000 ,
b11111000000000000 -
b00000000000000100 1
b00001000000001000 2
b11111000000001000 3
b00000000000001000 4
1l
b00001000000000000 m
1o
b11111000000000000 p
1r
b00000000000001000 s
b00001000000000000 t
b00000000000001000 u
b00001000000001000 w
b00001000 {
b00001000 }
13"
15"
b00010000 K"
b00010000 N"
1e"
1h"
b11111000000000000 !#
b00000000000001000 "#
b11111000000001000 $#
b00001000 (#
b00001000 *#
1=#
1?#
b11110000 U#
b11110000 X#
1o#
1r#
1t#
1w#
1y#
1|#
1!$
1$$
1&$
1)$
b00001000000001000 +$
b11111000000001000 ,$
b00000000000001000 -$
b00000000000001000 /$
b00000000000000100 1$
#40000000
1#
0$
1(
0)
b00000000000000100 6
0l
0o
b00000000000000100 q
0r
12$
b00000000000000100 3$
#60000000
1$
b0000000000000010 %
1)
b0000000000000010 *
b00000000000000100 ,
b00000000000000010 1
b00001000000000100 2
b11111000000000100 3
b00000000000000100 4
b00000000000000010 6
1l
1o
b00000000000000010 q
1r
b00000000000000100 s
b00000000000000100 u
b00001000000000100 w
b00000100 {
b00000100 }
1."
10"
03"
05"
b00000000000000100 "#
b11111000000000100 $#
b00000100 (#
b00000100 *#
18#
1:#
0=#
0?#
b00001000000000100 +$
b11111000000000100 ,$
b00000000000000100 -$
b00000000000000100 /$
b00000000000000010 1$
b00000000000000010 3$
#80000000
0$
0)
0l
0o
0r
#100000000
1$
b0000000000000001 %
1)
b0000000000000001 *
b00000000000000010 ,
b11111100000000001 1
b00001000000000010 2
b11111000000000010 3
b11111000000000010 4
b11111100000000001 6
1l
1o
b11111100000000001 q
1r
b00000000000000010 s
b00000000000000010 u
b00001000000000010 w
b00000010 {
b00000010 }
1)"
1+"
0."
00"
b00000000000000010 "#
b11111000000000010 $#
b00000010 (#
b00000010 *#
13#
15#
08#
0:#
b00001000000000010 +$
b11111000000000010 ,$
b00000000000000010 -$
b10 .$
b11111000000000010 /$
b11111100000000001 1$
b11111100000000001 3$
#120000000
0$
0)
0l
0o
0r
#140000000
1$
b1111110000000000 %
1)
b1111110000000000 *
b11111100000000001 ,
b00000010000000000 1
b00000100000000001 2
b11110100000000001 3
b00000100000000001 4
b00000010000000000 6
b11 8
1l
1o
b00000010000000000 q
1r
b11111100000000001 s
b11111100000000001 u
b00000100000000001 w
1x
b100 y
b00000001 {
b00000001 }
1$"
1&"
0)"
0+"
b11111000 L"
b00001000 N"
1O"
b111100000 P"
1a"
1c"
1f"
0h"
1i"
1k"
1l"
0m"
1n"
1p"
1q"
0r"
1s"
1u"
1v"
0w"
1x"
1z"
1{"
0|"
1}"
b11111100000000001 "#
b11110100000000001 $#
1%#
b100 &#
b00000001 (#
b00000001 *#
1.#
10#
03#
05#
b11111000 V#
b11101000 X#
1Y#
b111100000 Z#
1k#
1m#
1p#
0r#
1s#
1u#
1v#
1w#
1x#
1z#
1{#
1|#
1}#
1"$
1#$
1$$
1%$
1'$
1($
1)$
1*$
b00000100000000001 +$
b11110100000000001 ,$
b11111100000000001 -$
b01 .$
b00000100000000001 /$
b00000010000000000 1$
b00000010000000000 3$
#160000000
0$
0)
0l
0o
0r
#180000000
1$
b0000001000000000 %
1)
b0000001000000000 *
b00000010000000000 ,
b00000001000000000 1
b00001010000000000 2
b11111010000000000 3
b00000010000000000 4
b00000001000000000 6
b00 8
1l
1o
b00000001000000000 q
1r
b00000010000000000 s
b00000010000000000 u
b00001010000000000 w
0x
b000 y
b00000000 {
b00000000 }
0$"
0&"
b00000100 L"
b00010100 N"
0O"
b000000000 P"
1\"
1^"
0a"
0c"
0f"
1h"
0i"
0k"
0l"
0m"
0n"
0p"
0q"
0r"
0s"
0u"
0v"
0w"
0x"
0z"
0{"
0|"
0}"
b00000010000000000 "#
b11111010000000000 $#
0%#
b000 &#
b00000000 (#
b00000000 *#
0.#
00#
b00000100 V#
b11110100 X#
0Y#
b000000000 Z#
1f#
1h#
0k#
0m#
0p#
1r#
0s#
0u#
0v#
1w#
0x#
0z#
0{#
1|#
0}#
0"$
0#$
1$$
0%$
0'$
0($
1)$
0*$
b00001010000000000 +$
b11111010000000000 ,$
b00000010000000000 -$
b00 .$
b00000010000000000 /$
b00000001000000000 1$
b00000001000000000 3$
#200000000
0$
0)
0l
0o
0r
#220000000
1$
b0000000100000000 %
1)
b0000000100000000 *
b00000001000000000 ,
b00000000100000000 1
b00001001000000000 2
b11111001000000000 3
b00000001000000000 4
b00000000100000000 6
1l
1o
b00000000100000000 q
1r
b00000001000000000 s
b00000001000000000 u
b00001001000000000 w
b00000010 L"
b00010010 N"
1W"
1Y"
0\"
0^"
b00000001000000000 "#
b11111001000000000 $#
b00000010 V#
b11110010 X#
1a#
1c#
0f#
0h#
b00001001000000000 +$
b11111001000000000 ,$
b00000001000000000 -$
b00000001000000000 /$
b00000000100000000 1$
b00000000100000000 3$
#240000000
0$
0)
0l
0o
0r
#260000000
1$
b0000000010000000 %
1)
b0000000010000000 *
b00000000100000000 ,
b00000000010000000 1
b00001000100000000 2
b11111000100000000 3
b00000000100000000 4
b00000000010000000 6
1l
1o
b00000000010000000 q
1r
b00000000100000000 s
b00000000100000000 u
b00001000100000000 w
b00000001 L"
b00010001 N"
1R"
1T"
0W"
0Y"
b00000000100000000 "#
b11111000100000000 $#
b00000001 V#
b11110001 X#
1\#
1^#
0a#
0c#
b00001000100000000 +$
b11111000100000000 ,$
b00000000100000000 -$
b00000000100000000 /$
b00000000010000000 1$
b00000000010000000 3$
#280000000
0$
0)
0l
0o
0r
#300000000
1$
b0000000001000000 %
1)
b0000000001000000 *
b00000000010000000 ,
b00000000001000000 1
b00001000010000000 2
b11111000010000000 3
b00000000010000000 4
b00000000001000000 6
1l
1o
b00000000001000000 q
1r
b00000000010000000 s
b00000000010000000 u
b00001000010000000 w
b10000000 {
b10000000 }
1G"
1I"
b00000000 L"
b00010000 N"
0R"
0T"
b00000000010000000 "#
b11111000010000000 $#
b10000000 (#
b10000000 *#
1Q#
1S#
b00000000 V#
b11110000 X#
0\#
0^#
b00001000010000000 +$
b11111000010000000 ,$
b00000000010000000 -$
b00000000010000000 /$
b00000000001000000 1$
b00000000001000000 3$
#320000000
0$
0)
0l
0o
0r
#340000000
1$
b0000000000100000 %
1)
b0000000000100000 *
b00000000001000000 ,
b00000000000100000 1
b00001000001000000 2
b11111000001000000 3
b00000000001000000 4
b00000000000100000 6
1l
1o
b00000000000100000 q
1r
b00000000001000000 s
b00000000001000000 u
b00001000001000000 w
b01000000 {
b01000000 }
1B"
1D"
0G"
0I"
b00000000001000000 "#
b11111000001000000 $#
b01000000 (#
b01000000 *#
1L#
1N#
0Q#
0S#
b00001000001000000 +$
b11111000001000000 ,$
b00000000001000000 -$
b00000000001000000 /$
b00000000000100000 1$
b00000000000100000 3$
#360000000
0$
0)
0l
0o
0r
#380000000
1$
b0000000000010000 %
1)
b0000000000010000 *
b00000000000100000 ,
b00000000000010000 1
b00001000000100000 2
b11111000000100000 3
b00000000000100000 4
b00000000000010000 6
1l
1o
b00000000000010000 q
1r
b00000000000100000 s
b00000000000100000 u
b00001000000100000 w
b00100000 {
b00100000 }
1="
1?"
0B"
0D"
b00000000000100000 "#
b11111000000100000 $#
b00100000 (#
b00100000 *#
1G#
1I#
0L#
0N#
b00001000000100000 +$
b11111000000100000 ,$
b00000000000100000 -$
b00000000000100000 /$
b00000000000010000 1$
b00000000000010000 3$
#400000000
0$
0)
0l
0o
0r
#420000000
1$
b0000000000001000 %
1)
b0000000000001000 *
b00000000000010000 ,
b00000000000001000 1
b00001000000010000 2
b11111000000010000 3
b00000000000010000 4
b00000000000001000 6
1l
1o
b00000000000001000 q
1r
b00000000000010000 s
b00000000000010000 u
b00001000000010000 w
b00010000 {
b00010000 }
18"
1:"
0="
0?"
b00000000000010000 "#
b11111000000010000 $#
b00010000 (#
b00010000 *#
1B#
1D#
0G#
0I#
b00001000000010000 +$
b11111000000010000 ,$
b00000000000010000 -$
b00000000000010000 /$
b00000000000001000 1$
b00000000000001000 3$
#440000000
0$
0)
0l
0o
0r
#460000000
1$
b0000000000000100 %
1)
b0000000000000100 *
b00000000000001000 ,
b00000000000000100 1
b00001000000001000 2
b11111000000001000 3
b00000000000001000 4
b00000000000000100 6
1l
1o
b00000000000000100 q
1r
b00000000000001000 s
b00000000000001000 u
b00001000000001000 w
b00001000 {
b00001000 }
13"
15"
08"
0:"
b00000000000001000 "#
b11111000000001000 $#
b00001000 (#
b00001000 *#
1=#
1?#
0B#
0D#
b00001000000001000 +$
b11111000000001000 ,$
b00000000000001000 -$
b00000000000001000 /$
b00000000000000100 1$
b00000000000000100 3$
